{
	"info": {
		"_postman_id": "694d3a11-6e01-4f79-9dab-f0cd49d7842c",
		"name": "Pastelaria",
		"schema": "https://schema.getpostman.com/json/collection/v2.1.0/collection.json"
	},
	"item": [
		{
			"name": "Clientes",
			"item": [
				{
					"name": "Buscar Todos os Clientes",
					"request": {
						"method": "GET",
						"header": [],
						"url": {
							"raw": "http://localhost:8000/api/clientes",
							"protocol": "http",
							"host": [
								"localhost"
							],
							"port": "8000",
							"path": [
								"api",
								"clientes"
							]
						}
					},
					"response": []
				},
				{
					"name": "Buscar Cliente por Id",
					"request": {
						"method": "GET",
						"header": [],
						"url": {
							"raw": "http://localhost:8000/api/clientes/10",
							"protocol": "http",
							"host": [
								"localhost"
							],
							"port": "8000",
							"path": [
								"api",
								"clientes",
								"10"
							]
						}
					},
					"response": []
				},
				{
					"name": "Salvar Novo Cliente",
					"request": {
						"method": "POST",
						"header": [],
						"body": {
							"mode": "formdata",
							"formdata": [
								{
									"key": "nome",
									"value": "John Doe",
									"type": "default"
								},
								{
									"key": "email",
									"value": "john.doe@email2",
									"type": "default"
								},
								{
									"key": "telefone",
									"value": "11 97585-2201",
									"type": "default"
								},
								{
									"key": "data_nascimento",
									"value": "05-11-1995",
									"type": "default"
								},
								{
									"key": "endereco",
									"value": "rua do servidor",
									"type": "default"
								},
								{
									"key": "complemento",
									"value": "",
									"type": "default"
								},
								{
									"key": "bairro",
									"value": "vila linux",
									"type": "default"
								},
								{
									"key": "cep",
									"value": "07417-150",
									"type": "default"
								}
							]
						},
						"url": {
							"raw": "http://localhost:8000/api/clientes",
							"protocol": "http",
							"host": [
								"localhost"
							],
							"port": "8000",
							"path": [
								"api",
								"clientes"
							]
						}
					},
					"response": []
				},
				{
					"name": "Alterar Cliente Existente",
					"request": {
						"method": "PUT",
						"header": [],
						"body": {
							"mode": "formdata",
							"formdata": [
								{
									"key": "nome",
									"value": "John Doe",
									"type": "text"
								},
								{
									"key": "email",
									"value": "john.doe@email2",
									"type": "text"
								},
								{
									"key": "telefone",
									"value": "11 97585-2201",
									"type": "text"
								},
								{
									"key": "data_nascimento",
									"value": "05-11-1995",
									"type": "text"
								},
								{
									"key": "endereco",
									"value": "rua do servidor",
									"type": "text"
								},
								{
									"key": "complemento",
									"value": "",
									"type": "text"
								},
								{
									"key": "bairro",
									"value": "vila linux",
									"type": "text"
								},
								{
									"key": "cep",
									"value": "07417-150",
									"type": "text"
								}
							]
						},
						"url": {
							"raw": "http://localhost:8000/api/clientes/10",
							"protocol": "http",
							"host": [
								"localhost"
							],
							"port": "8000",
							"path": [
								"api",
								"clientes",
								"10"
							]
						}
					},
					"response": []
				},
				{
					"name": "Deleter um Cliente",
					"request": {
						"method": "DELETE",
						"header": [],
						"url": {
							"raw": "http://localhost:8000/api/clientes/10",
							"protocol": "http",
							"host": [
								"localhost"
							],
							"port": "8000",
							"path": [
								"api",
								"clientes",
								"10"
							]
						}
					},
					"response": []
				},
				{
					"name": "Forçar delete de Cliente",
					"request": {
						"method": "DELETE",
						"header": [],
						"url": {
							"raw": "http://localhost:8000/api/clientes/10/force",
							"protocol": "http",
							"host": [
								"localhost"
							],
							"port": "8000",
							"path": [
								"api",
								"clientes",
								"10",
								"force"
							]
						}
					},
					"response": []
				}
			]
		},
		{
			"name": "Produtos",
			"item": [
				{
					"name": "Buscar Todos os Produtos",
					"request": {
						"method": "GET",
						"header": [],
						"url": {
							"raw": "http://localhost:8000/api/produtos",
							"protocol": "http",
							"host": [
								"localhost"
							],
							"port": "8000",
							"path": [
								"api",
								"produtos"
							]
						}
					},
					"response": []
				},
				{
					"name": "Buscar Produto por Id",
					"request": {
						"method": "GET",
						"header": [],
						"url": {
							"raw": "http://localhost:8000/api/produtos/23",
							"protocol": "http",
							"host": [
								"localhost"
							],
							"port": "8000",
							"path": [
								"api",
								"produtos",
								"23"
							]
						}
					},
					"response": []
				},
				{
					"name": "Deletar um Produto",
					"request": {
						"method": "DELETE",
						"header": [],
						"url": {
							"raw": "http://localhost:8000/api/produtos/22",
							"protocol": "http",
							"host": [
								"localhost"
							],
							"port": "8000",
							"path": [
								"api",
								"produtos",
								"22"
							]
						}
					},
					"response": []
				},
				{
					"name": "Salvar Novo Produto",
					"request": {
						"method": "POST",
						"header": [],
						"body": {
							"mode": "formdata",
							"formdata": [
								{
									"key": "nome",
									"value": "pastel de belem",
									"type": "default"
								},
								{
									"key": "preco",
									"value": "10.00",
									"type": "default"
								},
								{
									"key": "foto",
									"type": "file",
									"src": "/C:/Users/mluca/OneDrive/Imagens/pastel-nata-destaque.jpg"
								}
							]
						},
						"url": {
							"raw": "http://localhost:8000/api/produtos",
							"protocol": "http",
							"host": [
								"localhost"
							],
							"port": "8000",
							"path": [
								"api",
								"produtos"
							]
						}
					},
					"response": []
				},
				{
					"name": "Alterar Um produto",
					"request": {
						"method": "POST",
						"header": [],
						"body": {
							"mode": "formdata",
							"formdata": [
								{
									"key": "nome",
									"value": "pastel de nata",
									"type": "text"
								},
								{
									"key": "preco",
									"value": "10.00",
									"type": "text"
								},
								{
									"key": "foto",
									"type": "file",
									"src": "/C:/Users/mluca/OneDrive/Imagens/photo_2023-04-09_17-18-36.jpg"
								}
							]
						},
						"url": {
							"raw": "http://localhost:8000/api/produtos/1?_method=PUT",
							"protocol": "http",
							"host": [
								"localhost"
							],
							"port": "8000",
							"path": [
								"api",
								"produtos",
								"1"
							],
							"query": [
								{
									"key": "_method",
									"value": "PUT"
								}
							]
						}
					},
					"response": []
				}
			]
		},
		{
			"name": "Pedidos",
			"item": [
				{
					"name": "Todos os Pedidos",
					"request": {
						"method": "GET",
						"header": [],
						"url": {
							"raw": "http://localhost:8000/api/pedidos",
							"protocol": "http",
							"host": [
								"localhost"
							],
							"port": "8000",
							"path": [
								"api",
								"pedidos"
							]
						}
					},
					"response": []
				},
				{
					"name": "Exibir Pedido Detalhado",
					"request": {
						"method": "GET",
						"header": [],
						"url": {
							"raw": "http://localhost:8000/api/pedidos/1",
							"protocol": "http",
							"host": [
								"localhost"
							],
							"port": "8000",
							"path": [
								"api",
								"pedidos",
								"1"
							]
						}
					},
					"response": []
				},
				{
					"name": "Buscar Pedidos de Cliente",
					"request": {
						"method": "GET",
						"header": [],
						"url": {
							"raw": "http://localhost:8000/api/pedidos/cliente/1",
							"protocol": "http",
							"host": [
								"localhost"
							],
							"port": "8000",
							"path": [
								"api",
								"pedidos",
								"cliente",
								"1"
							]
						}
					},
					"response": []
				},
				{
					"name": "Salvar Novo Pedido",
					"request": {
						"method": "POST",
						"header": [],
						"body": {
							"mode": "formdata",
							"formdata": [
								{
									"key": "cliente_id",
									"value": "1",
									"type": "default"
								},
								{
									"key": "pedidoItem[0][produto_id]",
									"value": "1",
									"type": "text"
								},
								{
									"key": "pedidoItem[0][quantidade]",
									"value": "5",
									"type": "default"
								},
								{
									"key": "pedidoItem[1][produto_id]",
									"value": "3",
									"type": "default"
								},
								{
									"key": "pedidoItem[1][quantidade]",
									"value": "2",
									"type": "default"
								}
							]
						},
						"url": {
							"raw": "http://localhost:8000/api/pedidos",
							"protocol": "http",
							"host": [
								"localhost"
							],
							"port": "8000",
							"path": [
								"api",
								"pedidos"
							]
						}
					},
					"response": []
				},
				{
					"name": "Editar Pedido",
					"request": {
						"method": "POST",
						"header": [],
						"body": {
							"mode": "formdata",
							"formdata": [
								{
									"key": "cliente_id",
									"value": "1",
									"type": "text"
								},
								{
									"key": "pedidoItem[0][produto_id]",
									"value": "1",
									"type": "text"
								},
								{
									"key": "pedidoItem[0][quantidade]",
									"value": "5",
									"type": "text"
								},
								{
									"key": "pedidoItem[1][produto_id]",
									"value": "3",
									"type": "text"
								},
								{
									"key": "pedidoItem[1][quantidade]",
									"value": "2",
									"type": "text"
								}
							]
						},
						"url": {
							"raw": "http://localhost:8000/api/pedidos/2/?_method=PUT",
							"protocol": "http",
							"host": [
								"localhost"
							],
							"port": "8000",
							"path": [
								"api",
								"pedidos",
								"2",
								""
							],
							"query": [
								{
									"key": "_method",
									"value": "PUT"
								}
							]
						}
					},
					"response": []
				},
				{
					"name": "Apagar Pedido Detalhado",
					"request": {
						"method": "DELETE",
						"header": [],
						"url": {
							"raw": "http://localhost:8000/api/pedidos/1",
							"protocol": "http",
							"host": [
								"localhost"
							],
							"port": "8000",
							"path": [
								"api",
								"pedidos",
								"1"
							]
						}
					},
					"response": []
				},
				{
					"name": "Forçar exclusão do Id",
					"request": {
						"method": "DELETE",
						"header": [],
						"url": {
							"raw": "http://localhost:8000/api/pedidos/1/force",
							"protocol": "http",
							"host": [
								"localhost"
							],
							"port": "8000",
							"path": [
								"api",
								"pedidos",
								"1",
								"force"
							]
						}
					},
					"response": []
				}
			]
		}
	]
}